…
```r
hf
```

```
## # A tibble: 22,758 × 21
##     Year Month DayofMo…¹ DayOf…² DepTime ArrTime Uniqu…³ Fligh…⁴ TailNum Actua…⁵
##    <dbl> <dbl>     <dbl>   <dbl>   <dbl>   <dbl> <chr>     <dbl> <chr>     <dbl>
##  1  2011     1        12       3    1419    1515 AA          428 N577AA       56
##  2  2011     1        17       1    1530    1634 AA          428 N518AA       64
##  3  2011     1        24       1    1356    1513 AA          428 N531AA       77
##  4  2011     1         9       7     714     829 AA          460 N586AA       75
##  5  2011     1        18       2     721     827 AA          460 N558AA       66
##  6  2011     1        22       6     717     829 AA          460 N499AA       72
##  7  2011     1        11       2    1953    2051 AA          533 N505AA       58
##  8  2011     1        14       5    2119    2229 AA          533 N549AA       70
##  9  2011     1        26       3    2009    2103 AA          533 N403AA       54
## 10  2011     1        14       5    1629    1734 AA         1121 N551AA       65
## # … with 22,748 more rows, 11 more variables: AirTime <dbl>, ArrDelay <dbl>,
## #   DepDelay <dbl>, Origin <chr>, Dest <chr>, Distance <dbl>, TaxiIn <dbl>,
## #   TaxiOut <dbl>, Cancelled <dbl>, CancellationCode <chr>, Diverted <dbl>, and
## #   abbreviated variable names ¹​DayofMonth, ²​DayOfWeek, ³​UniqueCarrier,
## #   ⁴​FlightNum, ⁵​ActualElapsedTime
```
…
The `select` verb is very easy. It just selects some subset of variables (the columns of your data set).

The `select` command from the `dplyr` package illustrates one of the common issues R users face. Because the word "select" is pretty common, and selecting things is a common task, there are multiple packages that have a function called `select`. Depending on the order in which packages were loaded, R might get confused as to which version of `select` you want and try to apply the wrong one. One way to get the correct version is to specify the package in the syntax. Instead of typing `select`, we can type `dplyr::select` to ensure we get the version from the `dplyr` package. We'll do this in all future uses of the `select` function. (The other functions in this chapter don't cause us trouble because we don't use any other packages whose functions conflict like this.)

Suppose all we wanted to see was the carrier, origin, and destination. We would type


```r
hf_select <- dplyr::select(hf, UniqueCarrier, Origin, Dest)
hf_select
```

```
## # A tibble: 22,758 × 3
##    UniqueCarrier Origin Dest 
##    <chr>         <chr>  <chr>
##  1 AA            IAH    DFW  
##  2 AA            IAH    DFW  
##  3 AA            IAH    DFW  
##  4 AA            IAH    DFW  
##  5 AA            IAH    DFW  
##  6 AA            IAH    DFW  
##  7 AA            IAH    DFW  
##  8 AA            IAH    DFW  
##  9 AA            IAH    DFW  
## 10 AA            IAH    DFW  
## # … with 22,748 more rows
```
…
Okay, back to the `select` function. The first argument of `select` is the tibble. After that, just list all the names of the variables you want to select.

If you don't like the names of the variables, you can change them as part of the select process.


```r
hf_select <- dplyr::select(hf,
                           carrier = UniqueCarrier,
                           origin = Origin,
                           dest = Dest)
hf_select
```

```
## # A tibble: 22,758 × 3
##    carrier origin dest 
##    <chr>   <chr>  <chr>
##  1 AA      IAH    DFW  
##  2 AA      IAH    DFW  
##  3 AA      IAH    DFW  
##  4 AA      IAH    DFW  
##  5 AA      IAH    DFW  
##  6 AA      IAH    DFW  
##  7 AA      IAH    DFW  
##  8 AA      IAH    DFW  
##  9 AA      IAH    DFW  
## 10 AA      IAH    DFW  
## # … with 22,748 more rows
```

(Note here that I am overwriting `hf_select` which had been defined slightly differently before. However, these two versions of `hf_select` are basically the same object, so no need to keep two copies here.)

There are a few notational shortcuts. For example, see what the following do.


```r
hf_select2 <- dplyr::select(hf, DayOfWeek:UniqueCarrier)
hf_select2
```

```
## # A tibble: 22,758 × 4
##    DayOfWeek DepTime ArrTime UniqueCarrier
##        <dbl>   <dbl>   <dbl> <chr>        
##  1         3    1419    1515 AA           
##  2         1    1530    1634 AA           
##  3         1    1356    1513 AA           
##  4         7     714     829 AA           
##  5         2     721     827 AA           
##  6         6     717     829 AA           
##  7         2    1953    2051 AA           
##  8         5    2119    2229 AA           
##  9         3    2009    2103 AA           
## 10         5    1629    1734 AA           
## # … with 22,748 more rows
```


```r
hf_select3 <- dplyr::select(hf, starts_with("Taxi"))
hf_select3
```

```
## # A tibble: 22,758 × 2
##    TaxiIn TaxiOut
##     <dbl>   <dbl>
##  1      4      11
##  2      8       8
##  3      6      28
##  4     11      13
##  5      7      13
##  6     18       7
##  7      3      11
##  8      5      20
##  9      9       6
## 10      8      10
## # … with 22,748 more rows
```
…
## `filter` {#manipulating-filter}

The `filter` verb works a lot like `select`, but for rows instead of columns.

For example, let's say we only want to see Delta flights. We use `filter`:


```r
hf_filter <- filter(hf, UniqueCarrier == "DL")
hf_filter
```

```
## # A tibble: 265 × 21
##     Year Month DayofMo…¹ DayOf…² DepTime ArrTime Uniqu…³ Fligh…⁴ TailNum Actua…⁵
##    <dbl> <dbl>     <dbl>   <dbl>   <dbl>   <dbl> <chr>     <dbl> <chr>     <dbl>
##  1  2011     1         4       2    1834    2134 DL           54 N969DL      120
##  2  2011     1         5       3    1606    1903 DL            8 N985DL      117
##  3  2011     1         5       3     543     834 DL         1248 N332NB      111
##  4  2011     1         7       5    1603    1902 DL            8 N958DL      119
##  5  2011     1         7       5    1245    1539 DL         1204 N907DE      114
##  6  2011     1         7       5     933    1225 DL         1590 N768NC      112
##  7  2011     1         8       6     921    1210 DL         1590 N770NC      109
##  8  2011     1        12       3      NA      NA DL         1590 N776NC       NA
##  9  2011     1        13       4     928    1224 DL         1590 N760NC      116
## 10  2011     1        13       4     656     947 DL         1900 N977DL      111
## # … with 255 more rows, 11 more variables: AirTime <dbl>, ArrDelay <dbl>,
## #   DepDelay <dbl>, Origin <chr>, Dest <chr>, Distance <dbl>, TaxiIn <dbl>,
## #   TaxiOut <dbl>, Cancelled <dbl>, CancellationCode <chr>, Diverted <dbl>, and
## #   abbreviated variable names ¹​DayofMonth, ²​DayOfWeek, ³​UniqueCarrier,
## #   ⁴​FlightNum, ⁵​ActualElapsedTime
```
…
(It's true because we just assigned `x` to be 3 in the previous code chunk!)

In the above `filter` command, we are saying, "Give me the rows where the value of `UniqueCarrier` is `"DL"`, or, in other words, where the statement `UniqueCarrier == "DL"` is true.

As another example, suppose we wanted to find out all flights that leave before 6:00 a.m.


```r
hf_filter2 <- filter(hf, DepTime < 600)
hf_filter2
```

```
## # A tibble: 230 × 21
##     Year Month DayofMo…¹ DayOf…² DepTime ArrTime Uniqu…³ Fligh…⁴ TailNum Actua…⁵
##    <dbl> <dbl>     <dbl>   <dbl>   <dbl>   <dbl> <chr>     <dbl> <chr>     <dbl>
##  1  2011     1        20       4     556     912 AA         1994 N3FTAA      136
##  2  2011     1        21       5     555     822 CO          446 N37252      147
##  3  2011     1        18       2     555     831 CO          446 N12216      156
##  4  2011     1        16       7     556     722 CO          199 N79279      146
##  5  2011     1         5       3     558    1009 CO           89 N16709      191
##  6  2011     1         1       6     558    1006 CO           89 N73406      188
##  7  2011     1         5       3     543     834 DL         1248 N332NB      111
##  8  2011     1         3       1     555     749 US          270 N156AW      174
##  9  2011     1         6       4     556     801 US          270 N313AW      185
## 10  2011     1        13       4     552     713 US          270 N334AW      141
## # … with 220 more rows, 11 more variables: AirTime <dbl>, ArrDelay <dbl>,
## #   DepDelay <dbl>, Origin <chr>, Dest <chr>, Distance <dbl>, TaxiIn <dbl>,
## #   TaxiOut <dbl>, Cancelled <dbl>, CancellationCode <chr>, Diverted <dbl>, and
## #   abbreviated variable names ¹​DayofMonth, ²​DayOfWeek, ³​UniqueCarrier,
## #   ⁴​FlightNum, ⁵​ActualElapsedTime
```
…
:::

*****

If we need two or more conditions, we use `&` for "and" and `|` for "or". The following will give us only the Delta flights that departed before 6:00 a.m.


```r
hf_filter3 <- filter(hf, UniqueCarrier == "DL" & DepTime < 600)
hf_filter3
```

```
## # A tibble: 30 × 21
##     Year Month DayofMo…¹ DayOf…² DepTime ArrTime Uniqu…³ Fligh…⁴ TailNum Actua…⁵
##    <dbl> <dbl>     <dbl>   <dbl>   <dbl>   <dbl> <chr>     <dbl> <chr>     <dbl>
##  1  2011     1         5       3     543     834 DL         1248 N332NB      111
##  2  2011     1        16       7     542     834 DL         1248 N364NB      112
##  3  2011     1        19       3     538     844 DL         1248 N370NB      126
##  4  2011     1        22       6     540     850 DL         1248 N315NB      130
##  5  2011     1        26       3     540     851 DL         1248 N321NB      131
##  6  2011     2        12       6     538     823 DL         1248 N361NB      105
##  7  2011     2        15       2     539     840 DL         1248 N327NB      121
##  8  2011     2        16       3     540     829 DL         1248 N326NB      109
##  9  2011     2        21       1     552     856 DL         1248 N779NC      124
## 10  2011     3         2       3     557     902 DL         2375 N777NC      125
## # … with 20 more rows, 11 more variables: AirTime <dbl>, ArrDelay <dbl>,
## #   DepDelay <dbl>, Origin <chr>, Dest <chr>, Distance <dbl>, TaxiIn <dbl>,
## #   TaxiOut <dbl>, Cancelled <dbl>, CancellationCode <chr>, Diverted <dbl>, and
## #   abbreviated variable names ¹​DayofMonth, ²​DayOfWeek, ³​UniqueCarrier,
## #   ⁴​FlightNum, ⁵​ActualElapsedTime
```
…
The `slice` command is related, but fairly useless in practice. It will allow you to extract rows by position. So `slice(hf, 1:10)` will give you the first 10 rows. As a general rule, the information available in a tibble should never depend on the order in which the rows appear. Therefore, no function you run should make any assumptions about the ordering of your data. The only reason one might want to think about the order of data is for convenience in presenting that data visually for someone to inspect. And that brings us to...


## `arrange` {#manipulating-arrange}

This just re-orders the rows, sorting on the values of one or more specified columns. As I mentioned before, in most data analyses you work with summaries of the data that do not depend on the order of the rows, so this is not quite as interesting as some of the other verbs. In fact, since the re-ordering is usually for the visual benefit of the reader, there is often no need to store the output in a new variable. We'll just print the output to the screen.


```r
arrange(hf, ActualElapsedTime)
```

```
## # A tibble: 22,758 × 21
##     Year Month DayofMo…¹ DayOf…² DepTime ArrTime Uniqu…³ Fligh…⁴ TailNum Actua…⁵
##    <dbl> <dbl>     <dbl>   <dbl>   <dbl>   <dbl> <chr>     <dbl> <chr>     <dbl>
##  1  2011    10         5       3    1656    1731 WN         2493 N510SW       35
##  2  2011     4        13       3    1207    1243 WN         2025 N738CB       36
##  3  2011     7        19       2    1043    1119 CO         1583 N16713       36
##  4  2011     2        22       2    1426    1503 WN         1773 N526SW       37
##  5  2011     3        19       6    1629    1706 WN         3805 N644SW       37
##  6  2011     5        31       2    1937    2014 WN          819 N378SW       37
##  7  2011     7        16       6    1632    1709 WN          912 N679AA       37
##  8  2011     8        22       1    1708    1745 WN         1754 N909WN       37
##  9  2011     9        30       5    1955    2032 WN         1959 N608SW       37
## 10  2011     9         1       4    1735    1812 WN         1754 N739GB       37
## # … with 22,748 more rows, 11 more variables: AirTime <dbl>, ArrDelay <dbl>,
## #   DepDelay <dbl>, Origin <chr>, Dest <chr>, Distance <dbl>, TaxiIn <dbl>,
## #   TaxiOut <dbl>, Cancelled <dbl>, CancellationCode <chr>, Diverted <dbl>, and
## #   abbreviated variable names ¹​DayofMonth, ²​DayOfWeek, ³​UniqueCarrier,
## #   ⁴​FlightNum, ⁵​ActualElapsedTime
```
…
Please write up your answer here.

:::

*****

If you want descending order, do this:


```r
arrange(hf, desc(ActualElapsedTime))
```

```
## # A tibble: 22,758 × 21
##     Year Month DayofMo…¹ DayOf…² DepTime ArrTime Uniqu…³ Fligh…⁴ TailNum Actua…⁵
##    <dbl> <dbl>     <dbl>   <dbl>   <dbl>   <dbl> <chr>     <dbl> <chr>     <dbl>
##  1  2011     2         4       5     941    1428 CO            1 N77066      527
##  2  2011    11         8       2     937    1417 CO            1 N59053      520
##  3  2011    11        11       5     930    1408 CO            1 N66057      518
##  4  2011    12        30       5     936    1413 CO            1 N69063      517
##  5  2011    12         8       4     935    1410 CO            1 N66051      515
##  6  2011    10        17       1     938    1311 CO            1 N69063      513
##  7  2011     6        27       1     936    1308 CO            1 N76064      512
##  8  2011     3        24       4     926    1256 CO            1 N69063      510
##  9  2011    12        27       2     935    1405 CO            1 N76065      510
## 10  2011     3         9       3     933    1402 CO            1 N69063      509
## # … with 22,748 more rows, 11 more variables: AirTime <dbl>, ArrDelay <dbl>,
## #   DepDelay <dbl>, Origin <chr>, Dest <chr>, Distance <dbl>, TaxiIn <dbl>,
## #   TaxiOut <dbl>, Cancelled <dbl>, CancellationCode <chr>, Diverted <dbl>, and
## #   abbreviated variable names ¹​DayofMonth, ²​DayOfWeek, ³​UniqueCarrier,
## #   ⁴​FlightNum, ⁵​ActualElapsedTime
```
…
:::


## `mutate` {#manipulating-mutate}

Frequently, we want to create new variables that combine information from one or more existing variables. We use `mutate` for this. For example, suppose we wanted to find the total time of the flight. We might do this by adding up the minutes from several variables: `TaxiOut`, `AirTime`, and `TaxiIn`, and assigning that sum to a new variable called `total`. Scroll all the way to the right in the output below (using the black right arrow) to see the new `total` variable.


```r
hf_mutate <- mutate(hf, total = TaxiOut + AirTime + TaxiIn)
hf_mutate
```

```
## # A tibble: 22,758 × 22
##     Year Month DayofMo…¹ DayOf…² DepTime ArrTime Uniqu…³ Fligh…⁴ TailNum Actua…⁵
##    <dbl> <dbl>     <dbl>   <dbl>   <dbl>   <dbl> <chr>     <dbl> <chr>     <dbl>
##  1  2011     1        12       3    1419    1515 AA          428 N577AA       56
##  2  2011     1        17       1    1530    1634 AA          428 N518AA       64
##  3  2011     1        24       1    1356    1513 AA          428 N531AA       77
##  4  2011     1         9       7     714     829 AA          460 N586AA       75
##  5  2011     1        18       2     721     827 AA          460 N558AA       66
##  6  2011     1        22       6     717     829 AA          460 N499AA       72
##  7  2011     1        11       2    1953    2051 AA          533 N505AA       58
##  8  2011     1        14       5    2119    2229 AA          533 N549AA       70
##  9  2011     1        26       3    2009    2103 AA          533 N403AA       54
## 10  2011     1        14       5    1629    1734 AA         1121 N551AA       65
## # … with 22,748 more rows, 12 more variables: AirTime <dbl>, ArrDelay <dbl>,
## #   DepDelay <dbl>, Origin <chr>, Dest <chr>, Distance <dbl>, TaxiIn <dbl>,
## #   TaxiOut <dbl>, Cancelled <dbl>, CancellationCode <chr>, Diverted <dbl>,
## #   total <dbl>, and abbreviated variable names ¹​DayofMonth, ²​DayOfWeek,
## #   ³​UniqueCarrier, ⁴​FlightNum, ⁵​ActualElapsedTime
```
…
```
## [1] TRUE
```

Perhaps we want a variable that just classifies a flight as arriving late or not. Scroll all the way to the right in the output below to see the new `late` variable.


```r
hf_mutate2 <- mutate(hf, late = (ArrDelay > 0))
hf_mutate2
```

```
## # A tibble: 22,758 × 22
##     Year Month DayofMo…¹ DayOf…² DepTime ArrTime Uniqu…³ Fligh…⁴ TailNum Actua…⁵
##    <dbl> <dbl>     <dbl>   <dbl>   <dbl>   <dbl> <chr>     <dbl> <chr>     <dbl>
##  1  2011     1        12       3    1419    1515 AA          428 N577AA       56
##  2  2011     1        17       1    1530    1634 AA          428 N518AA       64
##  3  2011     1        24       1    1356    1513 AA          428 N531AA       77
##  4  2011     1         9       7     714     829 AA          460 N586AA       75
##  5  2011     1        18       2     721     827 AA          460 N558AA       66
##  6  2011     1        22       6     717     829 AA          460 N499AA       72
##  7  2011     1        11       2    1953    2051 AA          533 N505AA       58
##  8  2011     1        14       5    2119    2229 AA          533 N549AA       70
##  9  2011     1        26       3    2009    2103 AA          533 N403AA       54
## 10  2011     1        14       5    1629    1734 AA         1121 N551AA       65
## # … with 22,748 more rows, 12 more variables: AirTime <dbl>, ArrDelay <dbl>,
## #   DepDelay <dbl>, Origin <chr>, Dest <chr>, Distance <dbl>, TaxiIn <dbl>,
## #   TaxiOut <dbl>, Cancelled <dbl>, CancellationCode <chr>, Diverted <dbl>,
## #   late <lgl>, and abbreviated variable names ¹​DayofMonth, ²​DayOfWeek,
## #   ³​UniqueCarrier, ⁴​FlightNum, ⁵​ActualElapsedTime
```
…
