…
```r
set.seed(42)
melanoma_test <- Melanoma %>%
    specify(response = sex_fct, success = "female") %>%
    hypothesize(null = "point", p = 0.5) %>%
    generate(reps = 1000, type = "draw") %>%
    calculate(stat = "prop")
melanoma_test
```

```
## Response: sex_fct (factor)
## Null Hypothesis: point
## # A tibble: 1,000 × 2
##    replicate  stat
##    <fct>     <dbl>
##  1 1         0.444
##  2 2         0.585
##  3 3         0.551
##  4 4         0.502
##  5 5         0.561
##  6 6         0.493
##  7 7         0.527
##  8 8         0.488
##  9 9         0.512
## 10 10        0.454
## # … with 990 more rows
```
…
