…
```
## Response: cyl_fct (factor)
## Null Hypothesis: point
## # A tibble: 1,000 × 2
##    replicate  stat
##    <fct>     <dbl>
##  1 1         1.58 
##  2 2         3.63 
##  3 3         3.63 
##  4 4         0.669
##  5 5         2.31 
##  6 6         0.648
##  7 7         4.13 
##  8 8         7.08 
##  9 9         0.648
## 10 10        0.669
## # … with 990 more rows
```
…
