…
```r
set.seed(1729)
bwt_smoke_test <- birthwt2 %>%
  specify(response = bwt, explanatory = smoke_fct) %>%
  hypothesize(null = "independence") %>%
  generate(reps = 1000, type = "permute") %>%
  calculate(stat = "diff in means", order = c("Nonsmoker", "Smoker"))
bwt_smoke_test
```

```
## Response: bwt (numeric)
## Explanatory: smoke_fct (factor)
## Null Hypothesis: independence
## # A tibble: 1,000 × 2
##    replicate   stat
##        <int>  <dbl>
##  1         1 -173. 
##  2         2  -79.3
##  3         3  -95.8
##  4         4 -253. 
##  5         5   31.3
##  6         6 -229. 
##  7         7   63.4
##  8         8   13.8
##  9         9   22.6
## 10        10 -118. 
## # … with 990 more rows
```
…
